{
    "Name":"Malaga",
    "Description":"Tipos de datos -> Autobuses de Malaga",
    "fields":{
        "Parada":{
            "name":"nombreParada",
            "type":"GraphQLString",
            "desc":"Parada del Autobus"
        },
        "Bus":{
            "name":"nombreLinea",
            "type":"GraphQLString",
            "desc":"Letrero del Autobus"
        },
        "Direccion":{
            "name":"sentido",
            "type":"GraphQLString",
            "desc":"Dirección que lleva el Autobus",
            "resolve":
                {
                    "true":"cabeceraIda",
                    "false":"cabeceraVuelta"
                }
        },
        "Longitud":{
            "name":"lon",
            "type":"GraphQLFloat",
            "desc":"Longitud en coordenadas geográficas"
        },
        "Latitud":{
            "name":"lat",
            "type":"GraphQLFloat",
            "desc":"Latitud en coordenadas geográficas"
        }
    },
    "Query":{
        "endpoint":"datastore",
		"uri":"http://datosabiertos.malaga.eu/api/3/action/datastore_search",
        "resource_id":"d7eb3174-dcfb-4917-9876-c0e21dd810e3",
        "results":"result.records"
    }
}