{
    "Name":"Barcelona",
    "Description":"Tipos de datos -> Autobuses de Barcelona",
    "fields":{
        "Bus":{
            "name":"EQUIPAMENT",
            "type":"GraphQLString",
            "desc":"Autobuses que pasan por la parada"
        },
        "Longitud":{
            "name":"LONGITUD",
            "type":"GraphQLFloat",
            "desc":"Longitud en coordenadas geográficas"
        },
        "Latitud":{
            "name":"LATITUD",
            "type":"GraphQLFloat",
            "desc":"Latitud en coordenadas geográficas"
        },
        "Parada":{
            "name":"NOM_DISTRICTE + NOM_BARRI",
            "search":"NOM_DISTRICTE",
            "type":"GraphQLString",
            "desc":"Nombre de distrito"
        }
    },
    "Query":{
        "endpoint":"datastore",
        "uri":"http://opendata-ajuntament.barcelona.cat/data/api/action/datastore_search",
        "resource_id":"2d190658-93ac-4c43-a23f-c5d313b1ae9c",
        "results":"result.records"
    }
}