{
    "Name":"Caceres",
    "Description":"Tipos de datos -> Autobuses de Cáceres",
    "fields":{
        "Parada":{
            "name":"foaf_name.value",
            "type":"GraphQLString",
            "desc":"Parada del Autobus"
        },
        "Bus":{
            "name":"gtfs_headsign.value",
            "type":"GraphQLString",
            "desc":"Letrero del Autobus"
        },
        "Direccion":{
            "name":"gtfs_direction.value",
            "type":"GraphQLString",
            "desc":"Dirección que lleva el Autobus",
            "resolve":{
                    "true":"'Ida'",
                    "false":"'Vuelta'"
            }
        },
        "Longitud":{
            "name":"geo_long.value",
            "type":"GraphQLFloat",
            "desc":"Longitud en coordenadas geográficas"
        },
        "Latitud":{
            "name":"geo_lat.value",
            "type":"GraphQLFloat",
            "desc":"Latitud en coordenadas geográficas"
        }
    },
    "Query":{
        "endpoint":"SparQL",
        "uri":"http://opendata.caceres.es/sparql/",
        "query":"SELECT ?geo_long ?geo_lat ?foaf_name ?gtfs_headsign ?gtfs_direction WHERE {?uri geo:long ?geo_long. ?uri geo:lat ?geo_lat. ?uri foaf:name ?foaf_name. ?URI gtfs:headsign ?gtfs_headsign . ?URI gtfs:direction ?gtfs_direction .}",
		"results":"results.bindings"
    }
}