{
    "Name":"Santander",
    "Description":"Tipos de datos -> Autobuses de Santander",
    "fields":{
        "Parada":{
            "name":"['ayto:parada']",
            "type":"GraphQLString",
            "desc":"Parada del Autobus"
        },
        "Bus":{
            "name":"['ayto:numero']",
            "type":"GraphQLString",
            "desc":"Linea que pasa por la parada"
        },
        "Direccion":{
            "name":"['ayto:sentido']",
            "type":"GraphQLString",
            "desc":"Dirección que lleva el Autobus"
        },
        "Longitud":{
            "name":"['wgs84_pos:long']",
            "type":"GraphQLFloat",
            "desc":"Longitud en coordenadas geográficas"
        },
        "Latitud":{
            "name":"['wgs84_pos:lat']",
            "type":"GraphQLFloat",
            "desc":"Latitud en coordenadas geográficas"
        }
    },
    "Query":{
        "endpoint":"Json",
        "uri":"http://datos.santander.es/api/rest/datasets/paradas_bus.json",
        "results":"resources"
    }
}